Образ Города в тетралогии Л. Даррелла “Александрийский квартет” – Alexandria Quartet
…
word_emb_Justine |> 
  nearest_neighbors ("город")

# A tibble: 10,519 × 2
   item1       value
   <chr>       <dbl>
 1 город       1    
 2 Александрия 0.550
 3 улица       0.444
 4 разрушить   0.393
 5 Мелисса     0.380
 6 часть       0.372
 7 сам         0.370
 8 дело        0.360
 9 день        0.360
10 жить        0.351
# ℹ 10,509 more rows

word_emb_Justine |> 
  nearest_neighbors ("Александрия")

# A tibble: 10,519 × 2
   item1       value
   <chr>       <dbl>
 1 Александрия 1    
 2 город       0.550
 3 Антоний     0.470
 4 мелодия     0.438
 5 прость      0.436
 6 мечта       0.433
 7 отважный    0.432
 8 ,к          0.432
 9 снисходеть  0.432
10 обманиться  0.431
# ℹ 10,509 more rows

word_emb_Justine |> 
  nearest_neighbors ("Город")

# A tibble: 10,519 × 2
   item1         value
   <chr>         <dbl>
 1 Город         1    
 2 платонический 0.999
 3 посредник     0.997
 4 чубук         0.994
 5 Лакадиф       0.976
 6 ботанический  0.861
 7 божество      0.857
 8 поделать      0.856
 9 козел         0.844
10 архив         0.838
# ℹ 10,509 more rows

word_emb_Justine |> 
  nearest_neighbors ("улица")

# A tibble: 10,519 × 2
   item1       value
   <chr>       <dbl>
 1 улица       1    
 2 столица     0.467
 3 стареющий   0.463
 4 сладковатый 0.457
 5 спекшеяться 0.454
 6 размякнуть  0.446
 7 город       0.444
 8 нищий       0.420
 9 размалевать 0.416
10 закончиться 0.415
# ℹ 10,509 more rows
…
Не менее важным видится упоминание “мелодии” (“мелодия оркестра”), которая задаёт мотив карнавальности и характеризует Александрию как пространство праздника. Эта компонента получит своё развитие и в других книгах тетралогии.

Стоит также пояснить слова “платонический”, “посредник”, “ботанический” и “козёл”. Как ни странно, они характеризуют одного персонажа: “Бальтазар — его [города] платонический daimon, посредник между его божествами и его людьми”. Этот герой напоминает рассказчику “ботанического козла”, “Пана” с “козлиными глазами”. Бальтазар - несомненно, ключ к пониманию образа города, его “демон”, поэтому их совместное упоминание вполне объяснимо.

Также среди ближайших соседей искомых слов встречаются упоминания кафе «Аль Актар» - фигуранта большого количества эпизодов романа, игры “триктрак”, репрезентующей сцены аристократичной жизни богатых александрийцев, и Мнемджяна - персонажа, которого рассказчик называет “архивом города”.

“Бальтазар”

# A tibble: 10,211 × 2
   item1        value
   <chr>        <dbl>
 1 город        1    
 2 навес        0.414
 3 люстра       0.400
 4 отзвук       0.389
 5 далекий      0.384
 6 недетский    0.383
 7 украшение    0.379
 8 свисток      0.372
 9 оранжерейный 0.371
10 бессонный    0.369
# ℹ 10,201 more rows

# A tibble: 10,211 × 2
   item1        value
   <chr>        <dbl>
 1 Александрия  1    
 2 распоряжение 0.491
 3 экран        0.462
 4 веселенький  0.460
 5 заказ        0.458
 6 legerete     0.454
 7 каминный     0.454
 8 FATALITE     0.452
 9 MATERNITE    0.451
10 heiн-лат     0.450
# ℹ 10,201 more rows

# A tibble: 10,211 × 2
   item1        value
   <chr>        <dbl>
 1 улица        1    
 2 выдыхать     0.626
 3 унять        0.589
 4 беспокойство 0.585
 5 выбежать     0.585
 6 запыхаться   0.576
 7 неопознанный 0.551
 8 соседний     0.551
 9 заметать     0.549
10 задник       0.544
# ℹ 10,201 more rows
…
“Маунтолив”

# A tibble: 12,602 × 2
   item1      value
   <chr>      <dbl>
 1 город      1    
 2 хамсина    0.506
 3 весенний   0.503
 4 квартасть  0.486
 5 отвоевать  0.486
 6 грести     0.464
 7 Гранд      0.462
 8 вырядиться 0.460
 9 нежиться   0.455
10 забредать  0.450
# ℹ 12,592 more rows

# A tibble: 12,602 × 2
   item1         value
   <chr>         <dbl>
 1 Александрия   1    
 2 приурочить    0.622
 3 приговаривать 0.603
 4 обходной      0.574
 5 перебираться  0.563
 6 мчаться       0.562
 7 душегубок     0.544
 8 праздничный   0.528
 9 перетекать    0.520
10 Каир.         0.514
# ℹ 12,592 more rows

“Маунтолив” - это, в первую очередь, детективный роман об английском дипломате в Египте, о чём говорят встретившиеся слова “штаб-квартира”, “спецпоезд”, “посольство”. Также в тексте присутствует много описывающих природу слов (“марево”, “финики”, “дюна”, “лето”, “хамсин”): действие романа часто происходит в пустыне, за городом.

Наиболее ярким из представленных видится слово “химерический [город]” - довольно точное и поэтичное описание эклектичной Александрии.

“Клеа”

# A tibble: 11,831 × 2
   item1          value
   <chr>          <dbl>
 1 город          1    
 2 Александрия    0.524
 3 капот          0.491
 4 стой           0.484
 5 прислониться   0.483
 6 почасовой      0.482
 7 уборная        0.480
 8 оплата         0.479
 9 неторопливость 0.477
10 наклонность    0.468
# ℹ 11,821 more rows

# A tibble: 11,831 × 2
   item1       value
   <chr>       <dbl>
 1 Александрия 1    
 2 забвение    0.584
 3 завоевать   0.583
 4 приручить   0.582
 5 погрузить   0.581
 6 Амр         0.570
 7 немногое    0.561
 8 граница     0.556
 9 Царственный 0.539
10 однородный  0.533
# ℹ 11,821 more rows

# A tibble: 11,831 × 2
   item1        value
   <chr>        <dbl>
 1 улица        1    
 2 плистать     0.513
 3 чанин        0.508
 4 сусло        0.502
 5 гейзер       0.499
 6 Предощущение 0.496
 7 степной      0.492
 8 злоба        0.492
 9 нездешний    0.483
10 повальный    0.482
# ℹ 11,821 more rows
…
